[
  {
    "type": "Feature",
    "geometry": {
      "type": "Point",
      "coordinates": [17.922237, 50.669345]
    },
    "properties": {
      "osm_id": 8381388791,
      "osm_type": 1,
      "distance": 30.08518176,
      "category_ids": {
        "451": {
          "category_name": "convenience",
          "category_group": "shops"
        }
      },
      "osm_tags": {
        "name": "Odido"
      }
    }
  },
  {
    "type": "Feature",
    "geometry": {
      "type": "Point",
      "coordinates": [17.92238, 50.669767]
    },
    "properties": {
      "osm_id": 8381461197,
      "osm_type": 1,
      "distance": 47.50988726,
      "category_ids": {
        "451": {
          "category_name": "convenience",
          "category_group": "shops"
        }
      },
      "osm_tags": {
        "name": "abc"
      }
    }
  }
]
